-8 976
-16 968
-24 960
-32 952
-40 944
-48 936
-968 16
-976 8
-992
-992
-8 -8 960
-8 -16 952
-16 -16 944
-24 -16 936
-480 -480 16
-488 -496
-56 -56 864
-512 -256 208
-600 -24 352
-200 -344 432
992
-32 952
32 -40 904
992
-272 712
272 -424 280
992
-520 464
520 -192 264
992
992
800 -184
-800 184
600 -200 -176
-600 200 -176
992
808 -176
992
992
48 -8 920
344 -424 208
-368 616
976 -8
-192 792
416 -72 488
344 -184 448
-192 792
-600 384
-192 -184 -192 -192 200
-192 -192 -192 -192 192
-488 -496
-488 -496
-320 -320 -336
-320 -328 -328
-240 -240 -240 -248
-240 -240 -240 -248
-184 -192 -192 -192 -200
-192 -192 -192 -192 -192
-152 -160 -160 -160 -160 -160
-152 -152 -160 -160 -160 -168
-488 496
-488 496
-320 -320 336
-320 -328 328
-240 -240 -240 248
-240 -240 -240 248
-184 -192 -192 -192 200
-192 -192 -192 -192 192
-152 -160 -160 -160 -160 160
-152 -152 -160 -160 -160 168
992
992
992
992
992
992
992
992
992
992
-488 496
-488 496
-320 664
-320 664
-240 744
-240 744
-184 800
-192 792
-152 832
-152 832
-8 -960 -8
-8 960 -8
8 -960 8
8 -960 8
