-40 944
-40 -24 912
40 -24 912
72 -24 880
992
-992
-992
232 -16 -16 -16 -16 -16 -16 -16 -16 -16 -16 -16 -16 -16 -16 -16 -16 -16 -16 -16 -16 272
976 -8
88 -24 -24 832
-160 8 -24 -24 -64 -24 -32 -40 552
